{
	"name":   "Identity Template",
	"key":    "thp_identity",
	"repo":   "https://gitlab.com/the-humble-programmer-templates/identity-template.git",
	"email":  "kirinnee97@gmail.com",
	"readme": "README.MD"
}
